…
As it stands, these data are not “tidy”: route number should be a
variable, as should route. That is, to obtain a tidy dataset we would
need to convert `route` variables from wide to long format. This will be
useful when focusing on specific routes, but may not be necessary when
considering questions that focus on station-level variables.

The following code chunk selects station name and line, and then uses
`distinct()` to obtain all unique combinations. As a result, the number
of rows in this dataset is the number of unique stations. .

``` r
trans_ent |> 
  select(station_name, line) |> 
  distinct()
## # A tibble: 465 × 2
##    station_name             line    
##    <chr>                    <chr>   
##  1 25th St                  4 Avenue
##  2 36th St                  4 Avenue
##  3 45th St                  4 Avenue
##  4 53rd St                  4 Avenue
##  5 59th St                  4 Avenue
##  6 77th St                  4 Avenue
##  7 86th St                  4 Avenue
##  8 95th St                  4 Avenue
##  9 9th St                   4 Avenue
## 10 Atlantic Av-Barclays Ctr 4 Avenue
## # ℹ 455 more rows
```

The next code chunk is similar, but filters according to ADA compliance
as an initial step. This produces a dataframe in which the number of
rows is the number of ADA compliant stations.

``` r
trans_ent |> 
  filter(ada == TRUE) |> 
  select(station_name, line) |> 
  distinct()
## # A tibble: 84 × 2
##    station_name                   line           
##    <chr>                          <chr>          
##  1 Atlantic Av-Barclays Ctr       4 Avenue       
##  2 DeKalb Av                      4 Avenue       
##  3 Pacific St                     4 Avenue       
##  4 Grand Central                  42nd St Shuttle
##  5 34th St                        6 Avenue       
##  6 47-50th Sts Rockefeller Center 6 Avenue       
##  7 Church Av                      6 Avenue       
##  8 21st St                        63rd Street    
##  9 Lexington Av                   63rd Street    
## 10 Roosevelt Island               63rd Street    
## # ℹ 74 more rows
```
…
``` r
trans_ent |> 
  pivot_longer(
    route1:route11,
    names_to = "route_num",
    values_to = "route") |> 
  filter(route == "A") |> 
  select(station_name, line) |> 
  distinct()
## # A tibble: 60 × 2
##    station_name                  line           
##    <chr>                         <chr>          
##  1 Times Square                  42nd St Shuttle
##  2 125th St                      8 Avenue       
##  3 145th St                      8 Avenue       
##  4 14th St                       8 Avenue       
##  5 168th St - Washington Heights 8 Avenue       
##  6 175th St                      8 Avenue       
##  7 181st St                      8 Avenue       
##  8 190th St                      8 Avenue       
##  9 34th St                       8 Avenue       
## 10 42nd St                       8 Avenue       
## # ℹ 50 more rows
…
``` r
anti_join(bakes_df, bakers_df, by = c("series", "baker"))
## # A tibble: 8 × 5
##   series episode baker    signature_bake                            show_stopper
##    <dbl>   <dbl> <chr>    <chr>                                     <chr>       
## 1      2       1 "\"Jo\"" Chocolate Orange CupcakesOrange and Card… Chocolate a…
## 2      2       2 "\"Jo\"" Caramelised Onion, Gruyere and Thyme Qui… Raspberry a…
## 3      2       3 "\"Jo\"" Stromboli flavored with Mozzarella, Ham,… <NA>        
## 4      2       4 "\"Jo\"" Lavender Biscuits                         Blueberry M…
## 5      2       5 "\"Jo\"" Salmon and Asparagus Pie                  Apple and R…
## 6      2       6 "\"Jo\"" Rum and Raisin Baked Cheesecake           Limoncello …
## 7      2       7 "\"Jo\"" Raspberry & Strawberry Mousse Cake        Pain Aux Ra…
## 8      2       8 "\"Jo\"" Raspberry and Blueberry Mille Feuille     Mini Victor…
anti_join(bakers_df, bakes_df, by = c("series", "baker"))
## # A tibble: 26 × 6
##    series baker   baker_last      baker_age baker_occupation            hometown
##     <dbl> <chr>   <chr>               <dbl> <chr>                       <chr>   
##  1      2 Jo      Wheatley               41 Housewife                   Ongar, …
##  2      9 Antony  Amourdoux              30 Banker                      London  
##  3      9 Briony  Williams               33 Full-time parent            Bristol 
##  4      9 Dan     Beasley-Harling        36 Full-time parent            London  
##  5      9 Imelda  McCarron               33 Countryside recreation off… County …
##  6      9 Jon     Jenkins                47 Blood courier               Newport 
##  7      9 Karen   Wright                 60 In-store sampling assistant Wakefie…
##  8      9 Kim-Joy Hewlett                27 Mental health specialist    Leeds   
##  9      9 Luke    Thompson               30 Civil servant/house and te… Sheffie…
## 10      9 Manon   Lagrave                26 Software project manager    London  
## # ℹ 16 more rows
```
…
``` r
anti_join(bakes_df, results_df, by = c("series", "baker", "episode"))
## # A tibble: 8 × 5
##   series episode baker    signature_bake                            show_stopper
##    <dbl>   <dbl> <chr>    <chr>                                     <chr>       
## 1      2       1 "\"Jo\"" Chocolate Orange CupcakesOrange and Card… Chocolate a…
## 2      2       2 "\"Jo\"" Caramelised Onion, Gruyere and Thyme Qui… Raspberry a…
## 3      2       3 "\"Jo\"" Stromboli flavored with Mozzarella, Ham,… <NA>        
## 4      2       4 "\"Jo\"" Lavender Biscuits                         Blueberry M…
## 5      2       5 "\"Jo\"" Salmon and Asparagus Pie                  Apple and R…
## 6      2       6 "\"Jo\"" Rum and Raisin Baked Cheesecake           Limoncello …
## 7      2       7 "\"Jo\"" Raspberry & Strawberry Mousse Cake        Pain Aux Ra…
## 8      2       8 "\"Jo\"" Raspberry and Blueberry Mille Feuille     Mini Victor…
anti_join(results_df, bakes_df, by = c("series", "baker", "episode"))
## # A tibble: 596 × 5
##    series episode baker    technical result
##     <dbl>   <dbl> <chr>        <dbl> <chr> 
##  1      1       2 Lea             NA <NA>  
##  2      1       2 Mark            NA <NA>  
##  3      1       3 Annetha         NA <NA>  
##  4      1       3 Lea             NA <NA>  
##  5      1       3 Louise          NA <NA>  
##  6      1       3 Mark            NA <NA>  
##  7      1       4 Annetha         NA <NA>  
##  8      1       4 Jonathan        NA <NA>  
##  9      1       4 Lea             NA <NA>  
## 10      1       4 Louise          NA <NA>  
## # ℹ 586 more rows
```
…
